20

7
Penny Garvin
Chuck Norris
Ian Tucker
Marie James
Alan Herbert
Nora Queens
Rachel McAfee
4 5 7 2 3 6 1
5 6 7 3 2 4 1
5 3 7 1 2 4 6
6 1 2 3 4 7 5
7 3 4 1 6 5 2
2 6 1 4 3 5 7
2 1 6 5 3 4 7

3
Frank Long
Bob Stevens
Ian Blanton
3 2 1
2 1 3
2 1 3
1 3 2
1 2 3
2 3 1

7
Sonia Herbert
Kasey Arnet
Quin Ekler
Dean Norris
Bob Peters
Alan Garvin
Ernie Stevens
7 1 2 3 5 4 6
6 2 5 7 1 4 3
7 1 6 2 5 3 4

5
Lydia James
Ernie Tucker
Marie Long
Kasey Norris
Ian Blanton
4 3 5 1 2
3 5 4 1 2
4 3 2 1 5
3 1 2 5 4
5 3 1 4 2
3 2 4 1 5

8
Hector Queens
Penny Arnet
Quin Herbert
Olivia Ford
Kasey McAfee
Rachel Peters
Justin Garvin
Chuck Russel
5 4 8 2 3 6 7 1
2 6 4 7 8 3 5 1
3 6 1 5 8 4 7 2
3 8 5 4 6 2 7 1

2
Lydia Ekler
Olivia Irvin
2 1
2 1
2 1
2 1
1 2
1 2
2 1
2 1
1 2

2
Hector Herbert
Ernie Queens
2 1
1 2
1 2
1 2
2 1
1 2

8
Alan Garvin
Nora Ekler
Marie Peters
Lydia Kelce
Ian Russel
Frank Herbert
Hector Irvin
Tracy Queens
7 4 6 1 2 3 5 8
2 8 1 5 3 4 6 7
1 4 2 6 7 5 8 3
2 6 5 7 1 3 8 4

1
Olivia Tucker
1
1

8
Penny Peters
Ernie Stevens
Marie Arnet
Sonia Ekler
Lydia Norris
Chuck Irvin
Nora Owens
Rachel Herbert
4 5 1 2 3 6 7 8

3
Gary Ekler
Rachel Cross
Tracy Russel
2 1 3
3 2 1
2 1 3
3 1 2
1 2 3
2 3 1

1
Sonia Ford
1

5
Tracy Long
Gary Norris
Kasey Arnet
Olivia Herbert
Lydia Darwin
1 2 4 5 3

4
Chuck Kelce
Frank Irvin
Lydia Cross
Dean Stevens
4 3 1 2
4 1 3 2
3 4 2 1
4 1 2 3
3 2 1 4
2 4 1 3
4 2 1 3
4 2 1 3
4 3 1 2
3 4 1 2
1 4 2 3
2 1 4 3
4 3 2 1
2 1 4 3
2 1 4 3
4 3 2 1
2 4 3 1
3 1 4 2
1 3 2 4
2 4 1 3

10
Ernie Norris
Gary Darwin
Dean Owens
Olivia Tucker
Lydia James
Penny Stevens
Rachel Herbert
Marie Russel
Justin Ekler
Quin Irvin
6 1 7 5 3 2 10 9 8 4
3 9 1 2 4 7 8 6 10 5
8 5 6 7 10 2 3 4 9 1
3 6 1 4 5 9 7 8 2 10
7 2 10 9 5 8 1 4 6 3
3 1 10 7 5 6 2 8 9 4
6 2 8 4 9 7 3 10 5 1
9 8 6 5 7 3 1 4 10 2
4 7 2 10 9 5 1 3 8 6
5 10 9 8 2 4 3 6 1 7
4 9 6 8 1 5 3 7 2 10
8 6 9 10 1 5 7 4 3 2
1 5 10 6 9 4 2 8 7 3
4 6 1 9 8 2 10 3 5 7
4 9 1 10 2 5 3 8 7 6
4 7 3 9 8 2 10 5 6 1
6 1 7 10 9 3 8 5 4 2
7 4 9 10 5 2 6 8 1 3
9 3 4 5 10 7 6 1 2 8

6
Kasey McAfee
Frank Herbert
Ian Arnet
Lydia Irvin
Dean Tucker
Ernie Russel
3 1 5 2 4 6
5 1 4 6 3 2
5 4 6 2 3 1
4 2 1 3 6 5
4 5 1 3 2 6

4
Lydia McAfee
Rachel Cross
Frank Blanton
Justin Russel
2 4 3 1
3 4 2 1
4 3 2 1
4 2 1 3
2 3 1 4
1 3 4 2
3 1 2 4
3 1 4 2
1 3 4 2
2 3 4 1
1 4 3 2
3 4 1 2
4 1 2 3
1 4 2 3
4 2 3 1
3 4 2 1
2 1 4 3

5
Hector Cross
Kasey James
Sonia Ekler
Rachel Arnet
Marie Long
5 2 3 4 1
4 2 3 5 1
5 3 2 4 1
3 2 5 4 1
2 5 4 3 1
5 3 4 2 1
3 2 4 5 1
4 2 5 1 3
2 3 1 4 5
5 1 2 4 3
3 4 1 5 2
2 4 5 1 3
2 4 1 3 5
3 4 2 1 5
2 4 1 5 3
5 4 2 3 1

10
Olivia Garvin
Sonia Stevens
Penny Russel
Kasey Kelce
Rachel Long
Bob Owens
Marie Arnet
Ernie Peters
Quin Blanton
Hector Tucker
1 10 3 4 8 7 2 6 5 9
5 7 1 4 2 8 9 10 3 6
5 8 1 9 4 7 3 6 10 2
5 6 7 2 10 4 8 1 3 9

4
Marie Norris
Sonia Owens
Justin Tucker
Quin Queens
3 2 1 4
4 1 3 2
4 2 3 1
2 1 3 4
3 4 2 1
1 4 3 2
2 4 1 3
3 2 4 1
2 3 4 1
2 4 1 3
4 3 2 1
4 2 1 3
4 2 1 3
4 1 2 3
3 2 4 1
