20

2
Lydia Russel
Nora James
2 1
2 1
2 1
1 2
2 1
2 1
2 1
1 2

4
Justin Kelce
Kasey Arnet
Frank Herbert
Hector Peters
1 2 3 4
3 2 4 1
4 3 2 1
4 2 1 3
2 4 1 3
4 2 3 1
3 1 2 4
1 2 4 3
2 1 4 3
1 4 2 3

8
Marie Ford
Justin McAfee
Olivia Kelce
Ian Ekler
Alan Stevens
Frank Arnet
Rachel Blanton
Tracy Herbert
1 5 8 2 4 6 7 3
2 4 3 8 7 1 6 5
8 3 4 1 6 2 5 7
1 5 8 2 3 6 4 7

5
Lydia Tucker
Ian Garvin
Hector Kelce
Marie Darwin
Rachel James
2 3 5 4 1
3 2 4 5 1
2 4 1 3 5
2 3 5 4 1
2 1 4 5 3
3 5 4 1 2
3 2 4 5 1
3 5 1 2 4
4 5 1 3 2
4 3 2 1 5
5 1 2 3 4
4 2 5 3 1
4 3 1 5 2
2 1 4 3 5

3
Sonia Norris
Rachel Tucker
Bob Ekler
1 3 2
1 2 3
1 3 2
3 2 1
1 3 2
1 3 2
2 1 3
2 1 3
1 2 3

4
Ian Arnet
Bob Queens
Alan Irvin
Dean Peters
1 3 4 2
2 3 1 4
3 2 4 1
1 4 3 2
1 4 3 2
3 2 4 1
2 3 1 4

7
Hector Long
Kasey Russel
Tracy Owens
Ernie James
Marie Queens
Penny Norris
Olivia Cross
2 7 1 6 4 3 5
7 1 4 3 2 6 5
5 3 4 1 6 2 7
5 7 3 1 2 4 6

6
Marie McAfee
Bob Peters
Tracy Russel
Ian Irvin
Sonia Long
Ernie Tucker
6 2 1 4 3 5
1 3 2 6 5 4
3 6 4 5 1 2
6 2 1 3 5 4
4 6 2 3 5 1
5 2 4 1 6 3
3 6 2 4 5 1
5 6 4 1 3 2
3 6 1 4 2 5
4 5 3 2 1 6

2
Olivia Herbert
Sonia Peters
1 2
2 1
1 2
2 1
2 1
2 1
2 1
1 2
2 1
2 1

7
Ian Arnet
Dean Queens
Chuck Ford
Ernie Russel
Alan Garvin
Hector James
Kasey McAfee
3 4 7 2 5 6 1

9
Olivia Long
Marie Blanton
Bob Darwin
Kasey Ford
Lydia Tucker
Nora Irvin
Alan Ekler
Chuck Norris
Ian Queens
3 5 2 8 7 1 4 9 6
3 7 8 2 9 6 5 4 1
4 7 2 9 8 5 3 6 1
5 7 3 1 4 2 9 6 8
1 5 7 6 2 4 3 9 8
6 5 8 9 3 1 4 7 2
2 5 1 9 7 4 8 6 3
1 2 6 5 4 9 8 7 3
8 3 4 2 9 7 6 1 5
9 6 8 4 3 2 5 1 7

4
Dean Herbert
Hector Garvin
Tracy Blanton
Lydia Ford
2 4 3 1
2 1 4 3
3 1 2 4
2 3 1 4
2 3 1 4
1 3 4 2
4 3 2 1

3
Frank McAfee
Tracy Garvin
Rachel James
2 1 3
1 3 2
3 2 1
1 3 2
2 3 1
3 1 2
2 3 1
2 3 1
3 1 2
1 2 3

2
Hector Tucker
Alan Queens
1 2
2 1
2 1
2 1
1 2
2 1
1 2
2 1
2 1
2 1

3
Rachel Tucker
Olivia Long
Nora Garvin
3 2 1

9
Frank Garvin
Chuck McAfee
Gary Blanton
Rachel Herbert
Nora Ekler
Ernie Queens
Sonia Cross
Marie Darwin
Penny Norris
2 9 8 7 1 6 4 5 3
1 2 3 4 8 9 5 6 7
8 4 3 1 5 2 9 6 7
1 5 4 3 9 8 7 2 6
9 3 4 6 1 7 5 2 8
3 4 8 1 9 5 7 2 6
4 3 7 6 9 8 5 1 2
4 8 5 9 2 3 1 6 7

3
Sonia Stevens
Rachel Blanton
Lydia Tucker
1 2 3
3 2 1
3 1 2
2 3 1
2 3 1
2 1 3
3 2 1
3 1 2
2 1 3

5
Chuck Garvin
Tracy Stevens
Gary Cross
Dean Ekler
Olivia Blanton
4 5 1 2 3
5 3 1 4 2
3 2 1 5 4

6
Sonia James
Olivia Ford
Bob Irvin
Dean Tucker
Justin Kelce
Quin Cross
5 6 1 4 3 2
4 3 1 5 2 6
3 4 6 2 1 5
2 1 5 6 3 4
1 2 6 5 3 4
3 2 1 5 6 4
4 2 5 3 6 1
3 6 2 5 1 4
2 4 3 6 5 1
2 4 1 6 3 5

8
Nora Stevens
Quin Garvin
Olivia Herbert
Ernie Darwin
Ian Ford
Dean Owens
Alan Kelce
Justin Ekler
4 1 5 3 7 2 8 6
1 8 7 5 2 6 4 3
2 6 8 7 4 5 1 3
6 7 5 3 2 8 1 4
2 6 5 7 8 1 3 4
4 5 8 2 3 1 7 6
2 7 4 5 1 8 3 6
2 3 5 6 1 8 4 7
7 4 6 3 8 2 5 1
5 3 4 7 6 8 2 1
